0 2 3 12 13 19 17 14 7 18 0
0 13 7 8 14 2 3 17 12 18 6 0
0 2 6 19 14 9 7 15 12 17 13 3 0
0 17 19 14 8 12 9 2 6 7 3 13 0
0 7 17 6 12 13 15 2 19 8 3 18 0
0 6 17 12 15 7 2 8 19 9 3 13 18 0
0 3 18 13 12 15 14 9 17 8 19 7 2 0
0 9 12 6 7 8 14 19 17 2 13 3 18 0
0 18 3 8 7 2 9 14 1 19 17 6 12 13 0
0 3 18 13 2 14 19 8 17 15 12 6 7 0
