0 22 27 32 52 55 58 71 87 108 120 123 130 160 179 183 8 25 61 70 72 84 36 0		212
0 160 70 139 194 12 6 169 119 190 9 187 83 144 68 196 67 52 49 86 78 61 183 135 105 120 184 87 36 18 0		214
0 160 70 139 194 12 6 169 119 190 9 187 83 144 68 196 67 52 49 86 61 183 135 105 120 184 87 36 18 38 189 0		220
0 27 170 87 9 138 144 12 181 18 5 189 38 123 167 68 58 169 154 59 110 94 179 130 153 19 70 116 84 183 52 0		226
0 130 190 144 52 122 179 194 49 22 162 92 199 164 61 40 84 169 134 1 58 167 12 64 183 129 184 160 79 83 0		228
0 138 162 61 144 58 159 22 52 145 18 36 130 134 83 87 190 119 110 25 135 167 64 38 91 28 179 74 84 166 0		234
0 91 160 170 87 179 36 119 83 21 138 108 140 58 84 77 190 68 144 139 123 72 49 32 162 107 181 52 130 0		237
0 91 160 170 87 179 36 119 83 21 138 108 140 58 84 77 190 68 144 123 72 49 32 162 107 181 52 130 35 0		238
0 160 170 87 179 36 119 83 21 138 108 140 58 84 77 190 68 144 123 72 49 32 162 107 52 130 35 75 150 174 0		239
0 160 170 87 179 36 119 83 21 138 108 140 58 84 77 190 68 144 123 72 49 32 162 107 52 130 75 150 174 173 61 0		244
0 160 170 87 179 36 119 83 21 138 108 140 58 84 77 190 68 144 123 72 49 32 162 107 52 130 150 174 173 61 27 0		248
0 36 144 179 190 183 107 160 12 167 130 68 152 9 72 30 11 164 84 49 158 161 64 83 171 169 138 67 77 81 10 52 18 162 38 0		251
0 36 144 179 190 183 107 160 12 167 130 68 152 9 72 30 11 164 84 49 158 161 64 83 171 169 138 67 77 81 52 18 162 38 5 0		252
0 36 144 179 190 183 107 160 12 167 130 68 9 72 30 11 164 84 49 158 161 64 83 171 169 138 67 77 81 52 18 162 38 5 58 0		253
0 36 179 183 160 12 167 68 84 169 52 162 38 58 134 22 83 194 8 170 105 77 108 75 130 70 136 25 46 140 107 5 0		254
0 36 179 183 160 12 167 68 84 52 162 38 58 22 83 8 170 105 77 108 75 130 136 25 46 140 107 5 40 27 86 190 0		255
0 36 179 183 160 12 167 68 84 52 162 38 58 22 83 8 170 105 77 108 75 130 25 46 140 107 5 40 27 86 190 1 0		258
0 68 144 84 18 1 21 36 27 183 130 190 194 72 179 58 164 140 105 108 25 187 170 160 61 189 5 107 8 87 159 22 0		259
0 68 144 84 18 1 21 36 27 183 130 190 194 72 179 58 140 105 108 25 187 170 160 61 189 5 107 8 87 159 22 141 0		260
0 68 144 84 18 1 21 36 27 183 130 190 194 72 179 58 140 105 108 25 187 170 160 61 189 5 107 8 87 22 141 40 0		261
0 68 144 84 18 1 21 36 27 183 130 190 194 179 58 140 105 108 25 187 170 160 61 5 107 8 87 22 141 40 162 52 0		264
0 130 160 135 179 83 21 138 144 169 78 92 152 91 87 58 196 194 84 167 12 70 102 9 95 72 33 181 68 46 80 132 38 52 36 0		266
0 130 160 179 83 138 144 169 58 84 167 12 70 102 9 95 72 33 181 68 46 38 52 36 18 134 91 141 162 27 190 145 40 61 23 0		267
0 130 138 144 167 68 186 194 70 187 166 64 36 52 10 160 38 162 61 107 49 5 169 84 190 25 91 179 1 171 83 58 174 135 78 189 0		268
0 130 138 144 167 68 186 194 70 187 166 64 36 52 10 160 38 162 61 107 5 169 84 190 25 91 179 1 171 83 58 174 135 189 12 140 0		269
0 130 138 144 167 68 186 194 70 187 166 64 36 52 10 160 38 162 61 107 5 169 84 190 25 179 1 171 83 58 174 135 189 12 140 150 96 0		273
0 130 144 167 68 186 194 70 64 36 52 10 160 38 162 61 107 190 179 1 83 58 174 189 12 140 150 32 49 170 84 21 132 37 22 169 0		274
0 144 167 68 186 194 64 36 162 61 107 58 32 170 37 22 130 25 152 183 179 138 52 174 21 6 78 190 119 10 40 87 105 150 70 196 0		275
0 144 167 68 186 194 64 36 61 107 58 32 170 37 22 130 25 152 183 179 138 52 174 21 6 78 190 119 10 40 87 105 150 70 196 72 0		276
0 144 167 68 186 194 64 36 61 107 58 32 170 37 22 130 152 183 179 138 52 174 21 6 78 190 119 10 87 105 150 70 196 72 84 12 0		277
0 144 167 68 186 194 64 36 61 107 58 32 170 22 130 152 183 179 138 52 174 21 6 78 190 119 10 87 105 150 70 196 72 84 12 164 0		278
0 144 167 68 194 64 36 61 107 58 32 170 22 130 138 52 174 190 119 10 105 150 196 72 12 164 91 46 199 9 87 59 160 71 25 83 183 0		279
0 144 167 68 194 64 36 61 107 58 32 170 22 130 138 52 174 190 119 105 150 196 72 12 164 91 46 199 9 87 160 71 25 83 183 173 38 0		280
0 144 12 70 179 36 167 68 5 38 83 183 40 130 64 59 105 190 52 132 169 84 170 87 119 58 134 18 21 72 194 181 186 9 110 94 138 107 0		283
0 144 12 70 179 36 167 68 5 38 83 183 40 130 64 59 105 190 52 132 169 84 170 87 119 58 134 18 72 194 181 186 9 110 94 138 107 61 0		284
0 144 70 167 68 170 87 61 183 179 190 36 171 1 169 58 18 83 64 130 107 46 72 86 160 135 25 10 52 138 152 134 92 78 17 75 22 93 40 0		287
0 144 70 167 68 170 87 61 183 179 190 36 171 1 169 58 18 83 64 130 107 46 72 86 160 135 25 10 52 138 152 134 92 78 17 75 22 93 38 0		288
0 144 70 167 68 170 87 61 183 179 190 36 171 1 169 58 18 83 64 130 107 46 72 86 160 135 25 10 52 138 152 92 78 17 22 93 38 162 141 0		289
0 144 70 167 68 87 61 183 179 190 36 171 1 169 58 18 83 64 130 72 160 135 25 52 138 22 38 162 40 189 37 5 166 107 21 152 140 17 0		290
0 144 70 167 68 87 61 183 179 36 171 1 169 58 64 130 160 25 52 22 162 40 27 166 187 150 194 32 181 170 135 138 5 83 152 84 107 0		294
0 144 70 167 68 87 61 183 179 36 171 1 169 58 64 130 160 25 52 22 162 40 27 187 150 194 32 181 170 135 138 5 83 152 84 107 189 174 0		296
0 144 167 68 183 179 36 1 169 58 64 52 22 162 27 87 190 119 170 160 105 38 135 25 21 78 84 138 145 83 159 152 91 107 5 130 40 166 0		301
0 144 167 68 183 179 36 169 58 64 52 22 162 27 87 190 119 170 160 105 135 25 21 78 84 138 83 152 91 107 5 130 166 37 134 61 38 40 0		302
0 144 167 68 183 179 36 169 58 64 52 22 162 27 87 190 119 170 160 105 135 25 21 78 84 138 83 152 91 107 5 130 166 37 61 38 40 7 103 0		305
0 170 190 162 38 84 25 144 179 183 107 36 167 58 40 130 169 1 64 68 194 11 72 70 150 71 189 166 87 110 160 158 59 138 52 61 27 103 83 0		307
0 170 190 162 38 84 25 144 179 183 107 36 167 58 40 130 169 64 68 194 11 72 70 150 189 166 87 110 160 158 59 138 52 61 27 103 5 171 92 83 0		308
0 170 190 162 38 84 25 144 179 183 107 36 167 58 130 169 64 68 194 11 72 70 150 189 166 87 110 160 158 59 138 52 61 27 103 5 171 92 83 21 0		309
0 170 190 162 38 84 25 144 179 183 107 36 167 58 130 169 64 68 194 11 72 70 150 189 87 110 160 158 59 138 52 61 27 103 5 171 92 83 21 78 0		310
0 58 68 144 25 36 130 22 162 38 52 61 190 119 150 167 134 169 78 171 5 179 105 87 189 64 84 166 183 83 1 127 172 194 49 70 170 160 37 138 7 107 0		313
0 58 68 144 25 36 130 22 162 38 52 61 190 119 150 167 134 169 78 171 5 179 105 87 189 64 84 183 83 1 127 172 194 49 70 170 160 37 138 107 174 27 0		315
0 68 167 170 160 12 194 58 169 1 171 25 138 130 83 36 107 183 61 22 38 162 64 52 40 5 166 87 190 70 105 189 174 27 103 84 164 144 135 199 127 78 0		316
0 36 58 68 144 179 38 162 22 52 5 138 87 119 160 150 9 25 135 64 130 21 83 107 8 190 183 167 194 12 181 32 196 95 84 40 61 37 2 78 171 0		318
0 36 58 68 144 179 38 162 22 52 5 138 87 119 160 150 9 25 135 64 130 21 83 107 8 190 183 167 194 12 181 32 196 95 84 61 37 78 171 1 45 132 169 0		323
0 36 58 68 144 179 38 162 22 52 138 87 119 160 150 9 25 64 130 21 83 107 8 190 183 167 194 12 181 32 196 95 84 78 171 1 169 152 18 134 166 40 93 0		324
0 36 58 68 144 179 38 162 22 52 138 87 119 160 150 9 25 64 130 21 83 107 8 190 183 167 194 12 181 32 196 95 84 78 171 1 169 152 18 166 40 93 61 0		325
0 36 58 68 144 179 38 162 22 52 138 87 160 150 9 25 64 130 107 167 194 12 181 32 196 95 1 169 40 61 189 170 10 183 91 84 190 5 134 18 83 21 0		327
55.33630063 seconds
