0 1 3 7 11 15 19 50 51 57 66 69 70 72 81 85 89 18 20 22 30 35 43 52 82 86 87 93 97 8 16 23 26 34 40 42 44 88 91 96 2 24 31 37 38 39 47 0		405
0 66 95 33 29 19 13 34 62 52 7 26 6 31 24 16 2 57 5 3 9 22 86 87 54 72 11 80 15 81 96 39 44 77 99 88 30 60 73 42 89 25 20 92 38 45 55 1 70 8 71 56 58 48 12 91 79 35 74 69 0		406
0 60 1 3 85 18 27 91 92 52 15 48 50 44 39 24 89 11 96 47 26 95 20 55 35 13 70 62 14 97 59 36 10 42 45 46 17 56 7 77 25 16 79 90 81 53 57 40 72 54 88 80 8 86 5 99 49 84 98 30 69 0		415
0 60 1 3 85 18 27 91 92 52 15 48 50 44 39 24 89 11 96 47 26 95 20 55 35 13 70 62 14 97 59 36 10 42 45 46 17 56 7 77 25 16 79 90 81 53 40 72 88 80 8 86 5 99 84 98 30 69 66 21 74 0		417
0 57 3 34 49 87 88 70 66 91 44 47 40 25 28 22 79 89 5 26 43 51 77 99 10 60 86 52 35 16 39 11 82 48 62 96 33 31 20 14 30 1 56 15 29 64 58 73 72 53 93 68 97 7 98 84 27 95 85 0		419
0 86 81 17 8 72 71 5 45 75 91 85 44 88 56 66 96 34 30 87 26 23 61 1 25 52 7 24 95 33 48 80 50 46 15 89 64 69 92 47 62 70 42 9 90 12 53 98 99 93 38 76 37 79 35 16 31 77 3 60 43 20 0		425
0 30 52 96 7 72 99 57 20 59 39 70 33 62 58 23 3 31 82 69 56 35 80 17 37 29 63 71 95 74 55 79 44 24 16 91 47 5 92 27 66 2 11 18 43 22 87 86 48 89 88 60 40 26 42 85 97 53 81 25 45 0		426
0 30 52 96 7 72 99 57 20 59 39 70 33 62 58 23 3 31 82 69 56 35 80 17 29 63 71 95 74 55 79 44 24 16 91 47 5 92 27 66 2 11 18 43 22 87 86 48 89 88 60 40 26 42 85 97 53 81 25 45 68 13 0		427
0 30 52 96 7 72 99 57 20 59 39 70 33 62 58 23 3 31 82 69 56 35 80 17 29 63 71 95 74 55 79 44 24 16 91 47 5 92 27 66 2 11 18 43 22 87 86 48 89 88 60 40 26 85 97 53 81 25 45 68 13 51 0		429
0 30 52 96 7 72 99 57 20 59 39 70 33 62 58 23 3 31 82 69 56 35 80 17 29 63 71 95 74 55 79 44 24 16 91 47 5 92 66 2 11 18 43 22 87 86 48 89 88 60 40 26 85 97 53 81 25 45 68 13 51 34 0		432
0 30 52 96 7 72 99 57 20 59 39 70 33 62 58 23 3 31 82 69 56 35 80 17 29 63 71 95 74 55 79 44 24 16 91 47 5 92 66 2 11 18 43 22 87 86 48 89 88 60 40 26 85 97 53 81 45 68 13 51 42 27 0		433
0 30 47 87 51 3 50 95 24 1 88 99 56 29 80 26 85 35 81 44 23 70 16 77 48 37 5 60 89 94 52 8 11 91 69 49 57 79 38 22 97 12 34 75 33 7 45 86 71 62 66 13 2 18 76 61 55 20 43 31 4 96 0		434
0 20 87 96 1 11 24 35 7 57 80 86 52 81 77 16 85 48 89 70 91 30 90 29 21 94 99 69 95 26 45 79 14 13 44 43 3 75 66 39 38 9 47 88 93 18 59 53 58 25 42 71 34 2 50 8 62 51 97 19 5 60 0		438
0 1 35 7 52 91 30 26 66 39 38 47 88 58 34 5 60 72 15 81 57 11 40 98 76 85 82 3 59 20 70 9 97 22 80 36 48 45 44 56 17 50 96 77 2 64 68 16 61 92 65 31 89 33 69 87 90 93 10 55 95 24 19 0		439
0 1 35 7 52 91 30 26 66 39 38 47 88 34 5 60 72 15 81 57 11 40 76 85 82 3 59 20 70 9 97 22 80 36 48 45 44 56 50 96 77 2 68 16 61 92 65 31 89 69 87 90 93 10 55 95 24 19 46 98 79 62 0		440
0 1 35 7 52 91 30 26 66 39 38 47 88 34 5 60 72 15 81 57 11 40 76 85 82 3 59 20 70 9 97 22 80 36 48 45 44 56 50 96 77 2 16 61 92 65 31 89 69 87 90 93 10 55 95 24 19 46 98 79 62 49 0		441
0 1 35 7 52 91 30 26 66 39 38 47 88 34 5 60 72 15 81 57 11 40 76 85 82 3 59 20 70 9 97 22 80 36 48 45 44 56 50 96 77 2 16 61 92 65 89 69 87 90 93 10 55 95 24 19 98 79 62 49 51 0		443
0 1 35 7 52 91 30 26 66 39 38 47 88 34 5 60 72 15 81 57 11 40 76 85 82 3 59 20 70 9 97 22 80 36 48 45 44 56 50 96 77 2 16 61 92 65 89 69 87 90 93 10 55 95 24 19 98 79 62 49 51 28 0		444
0 1 35 7 52 91 30 26 66 39 38 47 88 34 5 60 72 15 81 57 11 40 76 85 82 3 59 20 70 9 97 22 80 36 48 45 44 56 50 96 77 2 16 61 92 65 89 69 87 90 93 10 55 95 24 19 98 79 62 51 28 42 0		446
0 60 11 88 87 34 52 3 70 66 33 85 77 79 64 19 93 50 30 13 7 15 72 5 96 89 69 57 8 80 98 91 81 45 23 82 43 48 99 24 20 39 95 59 27 47 16 32 51 68 53 65 10 76 92 44 12 22 9 75 18 42 71 56 0		447
0 60 11 88 87 34 52 3 70 66 33 85 77 79 64 19 93 50 30 13 7 15 72 5 96 89 69 57 8 80 98 91 81 45 23 82 43 48 99 24 20 39 95 59 27 47 16 32 51 68 53 65 10 76 92 44 12 22 9 75 18 42 71 56 58 0		448
0 52 81 11 7 3 20 96 69 87 47 70 50 86 30 33 34 91 39 35 43 38 57 82 85 62 48 93 37 8 26 88 66 2 16 89 22 92 40 63 1 95 55 24 77 51 75 94 13 23 31 58 45 68 60 27 10 71 5 56 25 42 61 21 80 54 0		449
0 52 7 3 20 96 47 70 34 37 88 89 95 55 24 13 23 10 5 80 72 2 30 77 75 57 98 15 85 11 33 26 42 9 50 8 93 66 49 29 91 60 56 40 79 81 43 22 32 82 35 61 1 58 78 69 65 38 19 86 71 92 39 16 87 0		453
0 52 39 16 87 30 60 88 89 82 35 34 96 11 7 38 97 85 70 1 59 51 48 81 22 44 77 24 95 20 93 26 3 66 8 72 2 98 56 10 62 47 90 50 61 91 80 40 53 9 76 69 43 23 15 65 71 99 27 33 57 0		454
0 52 39 16 87 30 60 82 35 34 96 11 38 97 85 70 1 77 24 95 20 3 66 8 72 56 10 62 47 91 80 40 53 15 65 71 27 57 7 5 19 48 45 26 33 75 88 79 43 55 49 31 18 42 92 13 81 25 58 36 29 76 69 17 99 89 0		455
0 52 39 16 87 30 60 82 35 34 96 11 38 97 85 70 1 24 95 20 3 66 8 72 56 10 62 47 91 80 40 53 15 65 71 27 57 7 5 19 48 45 26 33 75 88 79 43 55 49 31 18 42 92 13 81 25 58 36 29 76 69 17 99 89 93 0		457
0 52 39 16 30 60 82 35 34 96 11 38 97 85 70 1 24 95 20 3 66 8 72 56 10 62 47 91 80 40 15 71 27 57 5 19 48 45 26 33 75 88 79 43 55 31 18 42 92 81 25 36 29 69 17 99 89 93 98 86 50 37 7 77 0		461
0 52 39 16 30 60 82 35 34 96 11 38 97 85 70 1 24 95 20 3 66 8 72 56 10 62 47 91 80 40 15 71 27 57 5 19 48 45 26 33 75 88 79 43 55 31 18 42 92 81 25 36 29 69 17 99 89 93 98 86 50 37 7 77 78 0		464
0 52 39 16 30 60 35 34 96 11 38 97 85 70 1 24 95 20 3 66 8 72 56 10 62 47 91 80 40 15 27 57 5 19 48 45 26 33 88 79 43 31 18 42 92 81 25 29 69 17 99 89 93 98 86 50 7 77 87 59 61 23 12 76 0		466
0 20 57 30 66 34 96 69 70 60 11 89 8 21 38 92 52 87 35 51 39 3 10 88 7 16 26 56 80 82 18 97 22 44 86 77 95 1 24 93 45 81 33 91 29 90 50 2 47 58 19 12 43 79 75 31 59 85 74 27 15 99 65 72 0		470
0 20 57 30 66 34 96 70 60 11 89 8 21 38 92 52 87 35 51 39 3 10 88 7 16 26 56 80 18 97 22 44 77 95 24 93 45 81 33 91 29 50 2 47 58 19 12 79 31 85 74 27 15 99 65 72 98 46 48 40 63 37 5 86 42 1 0		473
0 66 30 96 7 52 3 85 95 24 39 60 40 20 72 88 5 97 77 11 34 57 91 81 38 69 87 35 31 44 56 50 29 89 98 80 15 99 8 26 45 13 48 55 74 42 18 70 62 1 75 86 53 76 23 10 2 27 58 71 43 82 16 78 33 47 49 0		478
0 66 30 96 7 52 3 85 95 24 39 60 40 20 72 88 5 97 77 11 34 57 91 81 38 69 87 35 31 44 56 50 29 89 98 80 15 99 8 26 45 13 48 74 42 18 70 1 75 86 53 76 23 10 2 27 58 71 43 82 16 33 47 49 92 62 0		480
0 66 30 96 7 52 3 85 95 24 39 60 20 72 88 5 97 77 11 34 57 91 81 38 69 87 35 44 56 50 29 89 98 80 15 8 48 42 18 70 1 75 86 53 2 43 82 16 33 62 47 92 51 19 12 40 99 93 71 79 45 58 10 26 27 0		481
0 66 30 96 7 52 3 85 24 39 60 72 88 11 57 89 80 70 16 51 35 20 95 34 87 91 97 82 5 26 47 44 79 15 10 8 21 40 99 86 1 92 48 23 42 62 33 49 29 56 27 38 68 45 77 75 69 2 50 93 81 65 71 18 59 43 0		482
0 66 30 96 7 52 3 85 24 39 60 72 88 11 57 89 80 70 16 51 35 20 95 34 87 91 97 82 5 26 47 44 79 15 10 8 21 40 99 86 1 92 48 23 42 62 33 49 29 56 27 38 45 77 75 69 2 50 93 81 65 71 18 59 43 31 0		484
0 66 30 96 7 52 3 85 24 39 60 72 88 11 57 89 80 70 16 51 35 20 95 34 87 91 97 82 5 26 47 44 79 15 10 8 21 40 99 86 1 92 48 23 42 62 33 49 29 56 27 38 45 77 75 69 2 50 81 65 71 18 43 31 22 13 0		485
0 66 30 96 7 52 3 85 24 39 60 72 88 11 57 89 80 70 16 51 35 20 95 34 87 91 97 82 5 26 47 44 79 15 10 8 21 40 99 86 1 92 48 23 42 62 33 49 29 56 27 38 45 77 75 69 2 50 81 65 71 18 43 31 22 13 58 0		486
0 66 30 96 7 52 3 85 24 39 60 72 88 11 57 89 80 70 16 51 35 20 95 34 87 91 97 82 5 26 44 79 15 10 8 21 40 99 86 1 92 48 23 42 62 33 49 29 56 38 45 77 75 69 2 50 81 65 18 43 31 22 13 93 98 46 71 0		487
0 66 30 96 7 52 3 85 39 60 72 88 11 57 89 80 70 16 51 35 20 95 34 87 91 97 82 5 26 44 79 15 10 8 21 40 99 86 1 92 48 23 42 62 33 49 29 56 38 77 75 69 2 50 81 65 18 43 31 22 13 93 98 46 71 47 24 0		490
0 20 52 88 89 7 81 57 60 87 66 34 70 69 86 38 30 96 26 24 16 23 48 33 39 56 99 11 35 82 3 8 80 50 22 44 79 45 77 31 51 1 91 92 42 18 85 47 2 98 15 27 5 71 72 40 29 90 93 58 94 43 97 25 74 95 0		494
0 20 52 88 89 7 81 57 60 87 66 34 70 69 86 38 30 96 26 24 16 23 48 33 39 56 99 11 35 82 3 8 80 50 22 44 79 45 77 31 51 1 91 92 42 18 85 47 2 98 15 27 5 71 72 40 29 90 93 58 94 43 97 74 95 62 0		495
0 96 87 88 89 7 3 20 85 16 95 34 66 57 70 1 52 50 24 39 48 93 60 11 43 35 40 81 51 77 82 44 79 38 86 15 26 69 33 30 91 99 72 53 18 97 31 22 23 42 47 49 2 29 10 45 19 8 17 80 56 71 5 58 92 0		496
0 66 89 57 7 19 11 77 35 97 85 16 70 69 87 3 1 29 50 56 80 99 40 91 39 60 52 81 96 30 5 44 23 42 20 47 34 48 43 82 24 88 72 15 10 26 95 33 38 79 9 18 22 31 51 92 58 2 49 71 65 93 86 17 90 84 98 0		497
0 66 89 57 7 19 11 77 35 97 85 16 70 69 87 3 1 29 50 56 80 99 40 91 39 60 52 81 96 30 5 44 23 42 20 47 34 48 43 82 24 88 72 15 10 26 95 33 38 79 9 18 22 31 51 92 58 49 71 65 93 86 17 90 84 98 8 0		498
0 66 89 57 7 19 11 77 35 97 85 16 70 69 87 3 1 50 56 80 99 40 91 39 60 52 81 96 30 5 44 23 42 20 47 34 48 43 82 24 88 72 15 10 26 95 33 38 79 9 18 22 31 51 92 58 49 71 65 93 86 17 90 84 98 8 21 29 0		501
0 66 89 57 7 19 11 77 35 97 85 16 70 69 87 3 1 50 56 80 99 40 91 39 60 52 81 96 30 5 44 23 42 20 47 34 48 43 82 24 88 72 15 10 26 95 33 38 79 9 18 22 31 51 92 58 49 71 65 93 86 17 90 98 8 21 29 2 0		503
56.027600991 seconds
