0 15 18 36 39 6 9 12 21 22 24 34 37 43 7 26 33 41 46 48 1 8 13 14 49 3 27 42 28 0		224
0 43 16 6 39 42 48 46 26 9 7 8 37 12 1 45 24 36 23 11 44 33 41 15 29 38 28 18 32 34 22 13 0		225
0 7 43 16 11 15 41 26 13 42 39 36 37 27 18 33 21 46 23 14 44 48 19 32 12 8 22 6 34 30 17 49 9 0		230
0 39 29 21 37 6 3 26 22 12 27 36 48 18 1 33 7 49 9 16 14 42 23 46 43 11 24 15 41 34 8 0		232
0 43 37 7 46 24 48 9 36 42 22 34 26 6 8 17 18 28 39 27 13 14 23 1 19 11 33 41 44 3 49 4 12 0		234
0 7 24 48 9 36 42 8 39 13 14 23 11 33 41 46 44 34 29 43 16 21 6 28 49 26 19 22 18 3 37 12 4 0		235
0 37 39 26 33 6 28 8 11 21 18 3 48 46 31 36 22 34 12 7 49 16 9 45 24 42 23 43 29 41 44 14 47 19 0		236
0 37 39 26 33 6 28 8 11 21 18 3 48 46 31 36 22 34 12 7 49 9 45 24 42 23 43 29 41 44 14 47 19 15 0		244
0 13 11 46 43 21 16 41 48 7 24 12 35 26 27 3 18 14 44 39 33 15 23 1 49 42 8 29 22 34 31 36 37 28 6 0		248
0 6 37 18 24 7 39 48 11 33 21 49 9 36 31 42 14 41 1 23 15 46 34 8 26 3 12 17 22 13 43 44 19 29 0		250
0 39 18 7 24 26 48 46 21 11 29 13 19 15 41 43 33 37 14 8 6 22 34 30 27 3 35 9 31 42 28 12 36 49 23 16 0		252
0 39 18 7 24 26 48 46 21 11 29 13 19 15 41 43 33 37 14 8 6 22 34 27 3 35 9 31 42 28 12 36 49 23 1 0		256
0 37 6 26 39 24 36 48 23 41 15 33 11 43 46 18 27 22 34 42 7 49 9 8 12 13 29 19 14 21 44 1 32 31 4 0		257
0 37 6 26 39 24 36 48 23 41 15 33 11 43 46 18 27 22 34 42 7 49 9 8 12 13 29 19 14 21 44 1 31 4 3 0		259
0 37 39 26 7 24 18 34 33 43 41 46 48 8 6 22 36 49 9 11 14 23 15 21 19 13 29 42 28 3 27 31 12 1 32 44 0		261
40.884085791 seconds
